{
	"id" : "646ecc596a42069eb400afea",
	"firstName" : "Taeha",
	"lastName" : "Jung",
	"email" : "jungtaeha@mail.com",
	"password" : "jungtae23",
	"isAdmin" : false,
	"mobileNumber" : "09123456789",
	"dateTimeCreated" : "2020-03-15T15:00:00.00Z"
}
